…
…and a formatted summary can be quickly and simply inserted into a
report to distribute nicely.

``` r
results$FORMATTED$PROPORTIONS$`BY ATTAINED_AGE`
#> # A tibble: 83 x 9
#>    ATTAINED_AGE ACTUAL_DEATHS EXPECTED_DEATHS EXPOSURE VARIANCE_DEATHS
#>  *        <dbl> <chr>         <chr>           <chr>    <chr>          
#>  1           19 0.00          0.21            21.66    0.21           
#>  2           20 0.00          0.57            56.52    0.56           
#>  3           21 0.00          0.66            65.52    0.66           
#>  4           22 0.00          0.71            69.88    0.71           
#>  5           23 0.00          0.83            80.32    0.83           
#>  6           24 0.00          0.88            84.89    0.88           
#>  7           25 0.00          0.98            93.39    0.98           
#>  8           26 0.00          1.07            100.19   1.06           
#>  9           27 2.00          1.20            111.25   1.20           
#> 10           28 0.00          1.30            119.39   1.30           
#> # ... with 73 more rows, and 4 more variables: PROP_ACTUAL_DEATHS <chr>,
#> #   PROP_EXPECTED_DEATHS <chr>, PROP_EXPOSURE <chr>, PROP_VARIANCE_DEATHS <chr>
```
…
