Add Proportions — add_proportions • expstudy
…
  # If no arguments are provided, proportions will be generated for expstudy
  # metric variables only. This mostly makes sense for already aggregated
  # expstudy objects, but can be used with unaggregated objects as well.
  es %>%
    aggregate(
      ATTAINED_AGE
    ) %>%
    add_proportions
#> Source: local data table [83 x 9]
#> Call:   `_DT3`[, .(ACTUAL_DEATHS = sum(ACTUAL_DEATHS), EXPECTED_DEATHS = sum(EXPECTED_DEATHS), 
#>     EXPOSURE = sum(EXPOSURE), VARIANCE_DEATHS = sum(VARIANCE_DEATHS)), 
#>     keyby = .(ATTAINED_AGE)][, `:=`(PROP_ACTUAL_DEATHS = ACTUAL_DEATHS/sum(ACTUAL_DEATHS), 
#>     PROP_EXPECTED_DEATHS = EXPECTED_DEATHS/sum(EXPECTED_DEATHS), 
#>     PROP_EXPOSURE = EXPOSURE/sum(EXPOSURE), PROP_VARIANCE_DEATHS = VARIANCE_DEATHS/sum(VARIANCE_DEATHS))]
#> 
#>   ATTAINED_AGE ACTUAL_…¹ EXPEC…² EXPOS…³ VARIA…⁴ PROP_…⁵ PROP_…⁶ PROP_…⁷ PROP_…⁸
#>          <dbl>     <dbl>   <dbl>   <dbl>   <dbl>   <dbl>   <dbl>   <dbl>   <dbl>
#> 1           19         0   0.214    21.7   0.214       0 8.51e-4 0.00152 8.51e-4
#> 2           20         0   0.565    56.5   0.565       0 2.24e-3 0.00396 2.24e-3
#> 3           21         0   0.662    65.5   0.661       0 2.63e-3 0.00459 2.63e-3
#> 4           22         0   0.713    69.9   0.712       0 2.83e-3 0.00490 2.83e-3
#> 5           23         0   0.828    80.3   0.827       0 3.28e-3 0.00563 3.29e-3
#> 6           24         0   0.884    84.9   0.884       0 3.51e-3 0.00595 3.51e-3
#> # … with 77 more rows, and abbreviated variable names ¹​ACTUAL_DEATHS,
#> #   ²​EXPECTED_DEATHS, ³​EXPOSURE, ⁴​VARIANCE_DEATHS, ⁵​PROP_ACTUAL_DEATHS,
#> #   ⁶​PROP_EXPECTED_DEATHS, ⁷​PROP_EXPOSURE, ⁸​PROP_VARIANCE_DEATHS
…
