Add Credibility Factors — add_credibility • expstudy
…
    Examples

  es <- expstudy(
    data = mortexp,
    actuals = ACTUAL_DEATHS,
    expecteds = EXPECTED_DEATHS,
    exposures =  EXPOSURE,
    variances = VARIANCE_DEATHS
  )

   es %>%
     aggregate(ATTAINED_AGE) %>%
     add_credibility
#> Source: local data table [83 x 6]
#> Call:   `_DT1`[, .(ACTUAL_DEATHS = sum(ACTUAL_DEATHS), EXPECTED_DEATHS = sum(EXPECTED_DEATHS), 
#>     EXPOSURE = sum(EXPOSURE), VARIANCE_DEATHS = sum(VARIANCE_DEATHS)), 
#>     keyby = .(ATTAINED_AGE)][, `:=`(CREDIBILITY = pmin(1, 0.05 * 
#>     EXPECTED_DEATHS/sqrt(1.95996398454005 * VARIANCE_DEATHS)))]
#> 
#>   ATTAINED_AGE ACTUAL_DEATHS EXPECTED_DEATHS EXPOSURE VARIANCE_DEATHS
#>          <dbl>         <dbl>           <dbl>    <dbl>           <dbl>
#> 1           19             0           0.214     21.7           0.214
#> 2           20             0           0.565     56.5           0.565
#> 3           21             0           0.662     65.5           0.661
#> 4           22             0           0.713     69.9           0.712
#> 5           23             0           0.828     80.3           0.827
#> 6           24             0           0.884     84.9           0.884
#> # … with 77 more rows, and 1 more variable: CREDIBILITY <dbl>
#> 
#> # Use as.data.table()/as.data.frame()/as_tibble() to access results

   es %>%
     aggregate(
       UNDERWRITING_CLASS,
       GENDER,
       SMOKING_STATUS
     ) %>%
     add_credibility
#> Source: local data table [12 x 8]
#> Call:   `_DT1`[, .(ACTUAL_DEATHS = sum(ACTUAL_DEATHS), EXPECTED_DEATHS = sum(EXPECTED_DEATHS), 
#>     EXPOSURE = sum(EXPOSURE), VARIANCE_DEATHS = sum(VARIANCE_DEATHS)), 
#>     keyby = .(UNDERWRITING_CLASS, GENDER, SMOKING_STATUS)][, 
#>     `:=`(CREDIBILITY = pmin(1, 0.05 * EXPECTED_DEATHS/sqrt(1.95996398454005 * 
#>         VARIANCE_DEATHS)))]
#> 
#>   UNDERWRITING_CLA… GENDER SMOKING_STATUS ACTUAL_DEATHS EXPECTED_DEATHS EXPOSURE
#>   <fct>             <fct>  <fct>                  <dbl>           <dbl>    <dbl>
#> 1 PREFERRED         FEMALE NON-SMOKER                 9            7.74     455.
#> 2 PREFERRED         FEMALE SMOKER                     3            2.86     171.
#> 3 PREFERRED         MALE   NON-SMOKER                17           10.7      679.
#> 4 PREFERRED         MALE   SMOKER                     7            4.48     274.
#> 5 SELECT            FEMALE NON-SMOKER                22           20.7     1149.
#> 6 SELECT            FEMALE SMOKER                     8            7.68     453.
#> # … with 6 more rows, and 2 more variables: VARIANCE_DEATHS <dbl>,
#> #   CREDIBILITY <dbl>
…
