Aggregate an expstudy — aggregate • expstudy
…
an aggregated expstudy.

    Examples

  es <- expstudy(
    data = mortexp,
    actuals = ACTUAL_DEATHS,
    expecteds = EXPECTED_DEATHS,
    exposures =  EXPOSURE,
    variances = VARIANCE_DEATHS
  )

  es %>%
    aggregate(ATTAINED_AGE)
#> Source: local data table [83 x 5]
#> Call:   `_DT4`[, .(ACTUAL_DEATHS = sum(ACTUAL_DEATHS), EXPECTED_DEATHS = sum(EXPECTED_DEATHS), 
#>     EXPOSURE = sum(EXPOSURE), VARIANCE_DEATHS = sum(VARIANCE_DEATHS)), 
#>     keyby = .(ATTAINED_AGE)]
#> 
#>   ATTAINED_AGE ACTUAL_DEATHS EXPECTED_DEATHS EXPOSURE VARIANCE_DEATHS
#>          <dbl>         <dbl>           <dbl>    <dbl>           <dbl>
#> 1           19             0           0.214     21.7           0.214
#> 2           20             0           0.565     56.5           0.565
#> 3           21             0           0.662     65.5           0.661
#> 4           22             0           0.713     69.9           0.712
#> 5           23             0           0.828     80.3           0.827
#> 6           24             0           0.884     84.9           0.884
#> # … with 77 more rows
#> 
#> # Use as.data.table()/as.data.frame()/as_tibble() to access results

  es %>%
    aggregate(
      GENDER,
      UNDERWRITING_CLASS,
      SMOKING_STATUS
    )
#> Source: local data table [12 x 7]
#> Call:   `_DT4`[, .(ACTUAL_DEATHS = sum(ACTUAL_DEATHS), EXPECTED_DEATHS = sum(EXPECTED_DEATHS), 
#>     EXPOSURE = sum(EXPOSURE), VARIANCE_DEATHS = sum(VARIANCE_DEATHS)), 
#>     keyby = .(GENDER, UNDERWRITING_CLASS, SMOKING_STATUS)]
#> 
#>   GENDER UNDERWRITING_CLASS SMOKING_STATUS ACTUAL_DEATHS EXPEC…¹ EXPOS…² VARIA…³
#>   <fct>  <fct>              <fct>                  <dbl>   <dbl>   <dbl>   <dbl>
#> 1 FEMALE PREFERRED          NON-SMOKER                 9    7.74    455.    7.73
#> 2 FEMALE PREFERRED          SMOKER                     3    2.86    171.    2.86
#> 3 FEMALE SELECT             NON-SMOKER                22   20.7    1149.   20.7 
#> 4 FEMALE SELECT             SMOKER                     8    7.68    453.    7.67
#> 5 FEMALE STANDARD           NON-SMOKER                64   47.9    2689.   47.8 
#> 6 FEMALE STANDARD           SMOKER                    28   20.3    1181.   20.3 
#> # … with 6 more rows, and abbreviated variable names ¹​EXPECTED_DEATHS,
#> #   ²​EXPOSURE, ³​VARIANCE_DEATHS
…
