Create an expstudy object — expstudy • expstudy
…
    Value

    an expstudy

    Examples

  expstudy(
    data = mortexp,
    actuals = ACTUAL_DEATHS,
    expecteds = EXPECTED_DEATHS,
    exposures =  EXPOSURE,
    variances = VARIANCE_DEATHS
  )
#> Source: local data table [175,491 x 18]
#> Call:   `_DT6`
#> 
#>   AS_OF_DATE POLICY_HOLDER GENDER SMOKING_STATUS UNDERWRITING_CLASS INSURED_DOB
#>   <date>     <fct>         <fct>  <fct>          <fct>              <date>     
#> 1 1998-04-30 PH_0001       MALE   NON-SMOKER     STANDARD           1948-09-10 
#> 2 1998-05-31 PH_0001       MALE   NON-SMOKER     STANDARD           1948-09-10 
#> 3 1998-06-30 PH_0001       MALE   NON-SMOKER     STANDARD           1948-09-10 
#> 4 1998-07-31 PH_0001       MALE   NON-SMOKER     STANDARD           1948-09-10 
#> 5 1998-08-31 PH_0001       MALE   NON-SMOKER     STANDARD           1948-09-10 
#> 6 1998-09-30 PH_0001       MALE   NON-SMOKER     STANDARD           1948-09-10 
#> # … with 175,485 more rows, and 12 more variables: ISSUE_DATE <date>,
#> #   ISSUE_AGE <dbl>, ATTAINED_AGE <dbl>, DURATION_MONTH <int>,
#> #   DURATION_YEAR <dbl>, POLICY_STATUS <fct>, TERMINATION_DATE <date>,
#> #   EXPOSURE <dbl>, ACTUAL_DEATHS <dbl>, EXPECTED_MORTALITY_RT <dbl>,
#> #   EXPECTED_DEATHS <dbl>, VARIANCE_DEATHS <dbl>
…
