Add new expecteds and variances to an experience study — mutate_expecvar • expstudy
…
    Examples

mortexp |>
  dplyr::mutate(
    NEW_EXPECTED_MORT_RT = runif(n = nrow(mortexp))
  ) |>
  mutate_expecvar(
    new_expected_rates = NEW_EXPECTED_MORT_RT,
    new_expecvar_prefix = 'ADJ_',
    amount_scalar = FACE_AMOUNT
  )
#> # A tibble: 176,096 × 28
#>    AS_OF_DATE POLICY_HOLDER GENDER SMOKING_STATUS UNDERWRITING_CLASS FACE_AMOUNT
#>  * <date>     <fct>         <fct>  <fct>          <fct>                    <dbl>
#>  1 1998-04-30 PH_0001       FEMALE NON-SMOKER     STANDARD                  5000
#>  2 1998-05-31 PH_0001       FEMALE NON-SMOKER     STANDARD                  5000
#>  3 1998-06-30 PH_0001       FEMALE NON-SMOKER     STANDARD                  5000
#>  4 1998-07-31 PH_0001       FEMALE NON-SMOKER     STANDARD                  5000
#>  5 1998-08-31 PH_0001       FEMALE NON-SMOKER     STANDARD                  5000
#>  6 1998-09-30 PH_0001       FEMALE NON-SMOKER     STANDARD                  5000
#>  7 1998-10-31 PH_0001       FEMALE NON-SMOKER     STANDARD                  5000
#>  8 1998-11-30 PH_0001       FEMALE NON-SMOKER     STANDARD                  5000
#>  9 1998-12-31 PH_0001       FEMALE NON-SMOKER     STANDARD                  5000
#> 10 1999-01-31 PH_0001       FEMALE NON-SMOKER     STANDARD                  5000
#> # ℹ 176,086 more rows
#> # ℹ 22 more variables: INSURED_DOB <date>, ISSUE_DATE <date>,
#> #   TERMINATION_DATE <date>, ISSUE_AGE <dbl>, ATTAINED_AGE <dbl>,
#> #   EXPECTED_MORTALITY_RT <dbl>, POLICY_DURATION_YR <dbl>,
#> #   POLICY_DURATION_MNTH <int>, POLICY_STATUS <fct>, MORT_EXPOSURE_CNT <dbl>,
#> #   MORT_EXPOSURE_AMT <dbl>, MORT_ACTUAL_CNT <dbl>, MORT_ACTUAL_AMT <dbl>,
#> #   MORT_EXPECTED_CNT <dbl>, MORT_EXPECTED_AMT <dbl>, …
…
